INDEX VERSION 1.131+C:\Users\cogjava3303\eclipse-workspace\.metadata\.plugins\org.eclipse.jdt.core
3855950479.index
2809274720.index
274580483.index
1742975377.index
2296497008.index
3003699720.index
339391240.index
3649092516.index
3585149266.index
3992063576.index
203457618.index
2942139607.index
2759210129.index
3430652611.index
333491737.index
2740401539.index
387617181.index
1279729658.index
3069374083.index
560820302.index
1950698275.index
2243926556.index
4158315652.index
2964771963.index
1831046326.index
2232157258.index
3632439129.index
589960509.index
1594901868.index
2856080981.index
1653981176.index
103378615.index
2856688823.index
80730781.index
2507727728.index
4293468718.index
1524582737.index
979566615.index
4054095080.index
2794091429.index
3143394431.index
1078079052.index
1847220285.index
2176093457.index
2178014855.index
2028351359.index
2076775295.index
1223441864.index
934456450.index
2225810091.index
327127404.index
1884799505.index
3465853943.index
885438902.index
778680328.index
4067181923.index
3953710066.index
3616344402.index
3303394912.index
2665870004.index
861878085.index
866097126.index
1589479956.index
3677435941.index
3392096261.index
1722963362.index
3617626397.index
2207956520.index
1849116294.index
2588584029.index
1496006674.index
3801424684.index
4172320786.index
1063529312.index
378760980.index
1342280656.index
860671245.index
472311919.index
2300905869.index
282820656.index
706118890.index
1639507741.index
1405737195.index
2085481192.index
3088570349.index
3888550062.index
3523567536.index
2561785782.index
1220380567.index
2137763572.index
3824415596.index
1865797976.index
